[
  {
    "name": "May Lee",
    "initial": "May",
    "email": "te_a@a.com",
    "mobile": "12345678",
    "disabled": false,
    "roles": ["Teacher"],
    "teacher_code": "TE1",
    "mobile_whatsapp": "12345678",
    "mobile_classin": "91234567",
    "gender": "Female",
    "hourly_rate": 300.0,
    "trial_bonus": 200.0,
    "user_id": 9,
    "updated_at": "2021-03-17T17:53:56.757822",
    "products": [
      { "product_id": 1, "product_code": "ENG1", "name": "English 1v1" },
      { "product_id": 2, "product_code": "ENG2", "name": "English 1v2" },
      { "product_id": 3, "product_code": "ENG3", "name": "English 1v3" },
      { "product_id": 4, "product_code": "ENG4", "name": "English 1v4" }
    ]
  },
  {
    "name": "Ricky Wong",
    "initial": "Ricky",
    "email": "te_b@a.com",
    "mobile": "22345678",
    "disabled": false,
    "roles": ["Teacher"],
    "teacher_code": "TE2",
    "mobile_whatsapp": "22345678",
    "mobile_classin": "92234567",
    "gender": "Male",
    "hourly_rate": 300.0,
    "trial_bonus": 200.0,
    "user_id": 10,
    "updated_at": "2021-03-17T17:53:56.757822",
    "products": [
      { "product_id": 1, "product_code": "ENG1", "name": "English 1v1" },
      { "product_id": 2, "product_code": "ENG2", "name": "English 1v2" },
      { "product_id": 3, "product_code": "ENG3", "name": "English 1v3" },
      { "product_id": 4, "product_code": "ENG4", "name": "English 1v4" }
    ]
  },
  {
    "name": "Carol Cheung",
    "initial": "Carol",
    "email": "te_c@a.com",
    "mobile": "32345678",
    "disabled": false,
    "roles": ["Teacher"],
    "teacher_code": "TE3",
    "mobile_whatsapp": "32345678",
    "mobile_classin": "92234567",
    "gender": "Male",
    "hourly_rate": 300.0,
    "trial_bonus": 200.0,
    "user_id": 11,
    "updated_at": "2021-03-17T17:53:56.757822",
    "products": [
      { "product_id": 1, "product_code": "ENG1", "name": "English 1v1" },
      { "product_id": 2, "product_code": "ENG2", "name": "English 1v2" },
      { "product_id": 3, "product_code": "ENG3", "name": "English 1v3" },
      { "product_id": 4, "product_code": "ENG4", "name": "English 1v4" }
    ]
  }
]
